<?xml version="1.0" encoding="UTF-8"?>
<svg width="32px" height="32px" viewBox="0 0 32 32" version="1.1" xmlns="http://www.w3.org/2000/svg" xmlns:xlink="http://www.w3.org/1999/xlink">
    <!-- Generator: Sketch 57 (83077) - https://sketch.com -->
    <title>icon-facebook</title>
    <desc>Created with Sketch.</desc>
    <g id="Page-1" stroke="none" stroke-width="1" fill="none" fill-rule="evenodd">
        <g id="Footer" transform="translate(-1009.000000, -285.000000)">
            <g id="Group-3" transform="translate(957.000000, 131.000000)">
                <g id="icon-facebook" transform="translate(52.000000, 154.000000)">
                    <path d="M10,1.5 C5.30557963,1.5 1.5,5.30557963 1.5,10 L1.5,22 C1.5,26.6944204 5.30557963,30.5 10,30.5 L22,30.5 C26.6944204,30.5 30.5,26.6944204 30.5,22 L30.5,10 C30.5,5.30557963 26.6944204,1.5 22,1.5 L10,1.5 Z" id="Path" stroke="#333333" stroke-width="3" fill-opacity="0" fill="#FFFFFF"></path>
                    <path d="M13.7413333,24.7034667 L17.3381333,24.7034667 L17.3381333,15.9989333 L19.7376,15.9989333 L20.0554667,12.9994667 L17.3381333,12.9994667 L17.3418667,11.4976 C17.3418667,10.7157333 17.4165333,10.296 18.5386667,10.296 L20.0384,10.296 L20.0384,7.296 L17.6384,7.296 C14.7557333,7.296 13.7413333,8.75146667 13.7413333,11.1984 L13.7413333,12.9994667 L11.9445333,12.9994667 L11.9445333,15.9994667 L13.7413333,15.9994667 L13.7413333,24.7034667 L13.7413333,24.7034667 Z" id="Path" fill="#333333"></path>
                </g>
            </g>
        </g>
    </g>
</svg>