<?xml version="1.0" encoding="UTF-8"?>
<svg width="784px" height="784px" viewBox="0 0 784 784" version="1.1" xmlns="http://www.w3.org/2000/svg" xmlns:xlink="http://www.w3.org/1999/xlink">
    <!-- Generator: Sketch 57 (83077) - https://sketch.com -->
    <title>logo-rooeda</title>
    <desc>Created with Sketch.</desc>
    <g id="Page-1" stroke="none" stroke-width="1" fill="none" fill-rule="evenodd" opacity="0.03">
        <g id="logo-rooeda" transform="translate(25.000000, 25.000000)">
            <circle id="Oval" stroke="#FFFFFF" stroke-width="50" cx="366.704344" cy="366.704344" r="366.704344"></circle>
            <path d="M240,472.688345 C240,494.473156 240,516.19893 240,537.983741 C240,541.112725 240,544.182671 240,547.311655 C240,559.178178 250.371094,570.513364 262.5,569.982027 C274.6875,569.45069 285,560.004702 285,547.311655 C285,525.526844 285,503.80107 285,482.016259 C285,478.887275 285,475.817329 285,472.688345 C285,460.821822 274.628906,449.486636 262.5,450.017973 C250.3125,450.54931 240,459.936261 240,472.688345 L240,472.688345 Z" id="Path" fill="#FFFFFF" fill-rule="nonzero"></path>
            <path d="M496.493071,530.812172 C490.018585,524.397556 483.603498,517.98294 477.129012,511.508374 C461.625885,496.041356 446.182157,480.634288 430.67903,465.16727 C411.96836,446.462969 393.19829,427.818617 374.48762,409.114316 C358.271706,392.927902 342.055791,376.801438 325.839877,360.615023 C317.939816,352.761615 310.158553,344.728357 302.139694,336.994848 C302.020896,336.874949 301.902099,336.75505 301.783301,336.63515 C293.28925,328.182245 277.904921,327.402899 269.529669,336.63515 C261.213815,345.807452 260.441629,360.135426 269.529669,369.187828 C276.004155,375.602444 282.419242,382.01706 288.893728,388.491626 C304.396855,403.958644 319.840583,419.365712 335.343709,434.83273 C354.05438,453.537031 372.824449,472.181383 391.53512,490.885684 C407.751034,507.072098 423.966948,523.198562 440.182863,539.384977 C448.082923,547.238385 455.864186,555.271643 463.883045,563.005152 C464.001843,563.125051 464.120641,563.24495 464.239439,563.36485 C472.733489,571.817755 488.117818,572.597101 496.493071,563.36485 C504.808924,554.192548 505.521712,539.864574 496.493071,530.812172 L496.493071,530.812172 Z" id="Path" fill="#FFFFFF" fill-rule="nonzero"></path>
            <path d="M465.627239,285.005979 C465.627239,290.085386 465.281029,295.164794 464.58861,300.186482 C464.877118,298.223983 465.107924,296.261485 465.396432,294.298986 C464.069296,304.053758 461.472725,313.577648 457.66442,322.697494 C458.41454,320.908157 459.164661,319.176541 459.914782,317.387204 C456.048775,326.50705 451.086439,335.049691 445.027773,342.841964 C446.181804,341.34123 447.335836,339.840496 448.489868,338.339762 C442.604306,345.901153 435.85322,352.654457 428.294313,358.541952 C429.794554,357.387541 431.294795,356.23313 432.795036,355.078719 C424.947621,361.081656 416.407786,366.103343 407.348637,369.97062 C409.137386,369.220253 410.868434,368.469886 412.657183,367.719519 C403.540333,371.471354 394.019571,374.068779 384.268003,375.454072 C386.229857,375.165469 388.191711,374.934587 390.153565,374.645984 C380.055787,375.973557 369.900308,375.973557 359.802531,374.645984 C361.764385,374.934587 363.726238,375.165469 365.688092,375.454072 C355.936524,374.126499 346.415763,371.529075 337.298912,367.719519 C339.087661,368.469886 340.818709,369.220253 342.607458,369.97062 C333.490608,366.103343 324.950773,361.139377 317.161059,355.078719 C318.6613,356.23313 320.161541,357.387541 321.661782,358.541952 C314.102875,352.654457 307.351789,345.901153 301.466228,338.339762 C302.620259,339.840496 303.774291,341.34123 304.928323,342.841964 C298.927358,334.99197 293.90732,326.449329 290.041314,317.387204 C290.791434,319.176541 291.541555,320.908157 292.291675,322.697494 C288.541072,313.577648 285.944501,304.053758 284.559663,294.298986 C284.848171,296.261485 285.078977,298.223983 285.367485,300.186482 C284.040349,290.085386 284.040349,279.926571 285.367485,269.825475 C285.078977,271.787974 284.848171,273.750472 284.559663,275.712971 C285.886799,265.958199 288.483371,256.434309 292.291675,247.314463 C291.541555,249.1038 290.791434,250.835416 290.041314,252.624753 C293.90732,243.504907 298.869656,234.962267 304.928323,227.169993 C303.774291,228.670727 302.620259,230.171461 301.466228,231.672196 C307.351789,224.110804 314.102875,217.357501 321.661782,211.470005 C320.161541,212.624416 318.6613,213.778827 317.161059,214.933238 C325.008474,208.930301 333.548309,203.908614 342.607458,200.041337 C340.818709,200.791704 339.087661,201.542071 337.298912,202.292438 C346.415763,198.540603 355.936524,195.943179 365.688092,194.557885 C363.726238,194.846488 361.764385,195.07737 359.802531,195.365973 C369.900308,194.038401 380.055787,194.038401 390.153565,195.365973 C388.191711,195.07737 386.229857,194.846488 384.268003,194.557885 C394.019571,195.885458 403.540333,198.482882 412.657183,202.292438 C410.868434,201.542071 409.137386,200.791704 407.348637,200.041337 C416.465488,203.908614 425.005322,208.87258 432.795036,214.933238 C431.294795,213.778827 429.794554,212.624416 428.294313,211.470005 C435.85322,217.357501 442.604306,224.110804 448.489868,231.672196 C447.335836,230.171461 446.181804,228.670727 445.027773,227.169993 C451.028738,235.019987 456.048775,243.562628 459.914782,252.624753 C459.164661,250.835416 458.41454,249.1038 457.66442,247.314463 C461.415023,256.434309 464.011594,265.958199 465.396432,275.712971 C465.107924,273.750472 464.877118,271.787974 464.58861,269.825475 C465.281029,274.904883 465.627239,279.926571 465.627239,285.005979 C465.68494,296.607808 475.782718,307.690153 487.784648,307.170668 C499.786577,306.651183 510,297.415896 509.942056,285.005979 C509.826653,257.877323 501.69073,230.229182 485.822794,208.064493 C476.879048,195.596855 466.78127,185.380319 454.606236,176.145032 C443.931442,168.064156 431.987214,162.11894 419.46597,157.559017 C368.226962,138.915281 306.543967,155.654239 271.980717,197.905677 C267.306889,203.677731 262.806165,209.622948 258.99786,215.972207 C255.131854,222.436908 252.131372,229.247933 249.246292,236.232119 C244.05315,248.930638 241.456578,262.437246 240.360248,276.117015 C238.282991,303.18795 245.264883,331.471017 259.34407,354.616955 C272.961644,377.012526 293.445707,396.175747 317.449567,407.027209 C324.316055,410.144119 331.355649,412.972426 338.626049,415.050365 C346.069553,417.128305 353.686163,418.282716 361.418175,419.206244 C375.266556,420.88014 389.403444,419.78345 403.07872,417.070584 C455.587163,406.623166 499.555771,361.4857 507.864799,308.44052 C509.076533,300.648246 510,292.913693 510,285.005979 C510.05746,273.404149 499.786577,262.321805 487.842349,262.84129 C475.782718,263.418495 465.68494,272.596062 465.627239,285.005979 Z" id="Path" fill="#FFFFFF" fill-rule="nonzero"></path>
        </g>
    </g>
</svg>